<svg xmlns='http://www.w3.org/2000/svg' viewBox='0 0 80 10'>
	<path fill="#fff" d='M 0 0 h 80 v 10 h -40 l 20 -10 h -20 v 10 h -40 Z'></path>
	<path stroke='#aaa' d='M 0 0 h 40 v 10 l 20 -10 h 20 Z'></path>
</svg>