<?xml version="1.0" encoding="UTF-8" standalone="no"?>
<!DOCTYPE svg PUBLIC "-//W3C//DTD SVG 1.1//EN" "http://www.w3.org/Graphics/SVG/1.1/DTD/svg11.dtd">
<svg version="1.1" xmlns="http://www.w3.org/2000/svg" viewBox="0 0 118 63">
	<path d="M23.13 52.46C26.1 49.56 28.05 43.74 30.32 40.01C36.64 29.64 44.82 20.68 57.25 18.7C63.19 17.75 67.66 20.07 73.23 21.75C95.69 28.52 103.15 38.24 117.17 42.68C117.17 42.68 87.87 14.66 87.87 14.66C84.37 11.32 75.8 1.81 71.9 0.34C67.42 -1.35 55.41 3.79 50.59 5.4C46.47 6.77 35.26 10.18 32.18 12.16C28.43 14.58 24.18 20.44 21.3 24.04C12.78 34.69 3.77 49.43 0 62.65C5.09 60.88 19.72 55.79 23.13 52.46Z">
	</path>
</svg>