<?xml version="1.0" encoding="UTF-8" standalone="no"?>
<!DOCTYPE svg PUBLIC "-//W3C//DTD SVG 1.1//EN" "http://www.w3.org/Graphics/SVG/1.1/DTD/svg11.dtd">
<svg version="1.1" xmlns="http://www.w3.org/2000/svg" viewBox="0 0 114 168">
	<path d="M55.92 33.29C57.26 37.33 62.15 50.91 61.35 54.46C60.38 58.74 54.18 61.1 50.59 62.91C50.59 62.91 19.97 78.55 19.97 78.55C20.68 81.03 22.09 85.1 21.44 87.63C19.69 94.5 6.3 99.5 0 99.86C0.91 103.67 1.57 106.83 4.55 109.67C8.8 113.72 14.62 113.77 17.77 119.96C23.99 132.17 15.27 134.7 13.06 142.46C12.16 145.67 13.73 153.82 15.32 156.75C17.24 160.26 23.05 162.38 26.63 163.95C29.73 165.31 33.94 167.11 37.28 167.43C54.72 169.14 62.32 143.83 74.68 135.59C74.68 135.59 113.17 121.16 113.17 121.16C113.17 121.16 96.16 86.54 96.16 86.54C94.64 80.5 100.08 78.83 100.98 71.9C101.49 67.82 98.54 51.66 97.75 46.6C97.1 42.34 96.05 32.89 94.69 29.29C92.44 23.37 85.09 16.54 84.2 6.68C84.33 3.5 84.83 3.3 84.2 0C71.08 8.27 73.3 22.33 55.92 33.29Z">
	</path>
</svg>