<?xml version="1.0" encoding="UTF-8" standalone="no"?>
<!DOCTYPE svg PUBLIC "-//W3C//DTD SVG 1.1//EN" "http://www.w3.org/Graphics/SVG/1.1/DTD/svg11.dtd">
<svg version="1.1" xmlns="http://www.w3.org/2000/svg" viewBox="0 0 122 142">
	<path d="M26.63 26.51C29.56 29.2 35.28 33.11 37.05 36.19C40.68 42.53 38.86 55.83 40.78 62.58C40.78 62.58 47.47 78.55 47.47 78.55C48.65 83.13 49.14 92.24 51.01 95.62C53.03 99.26 56.6 100.84 59.36 104.09C59.36 104.09 64.65 112.09 64.65 112.09C67.02 114.34 70.07 114.69 73.87 118.78C83.27 128.87 80.37 136.31 97.19 141.13C97.19 141.13 102.03 122.49 102.03 122.49C102.03 122.49 115.66 69.23 115.66 69.23C115.66 69.23 121.47 42.97 121.47 42.97C121.47 42.97 114.5 38.17 114.5 38.17C114.5 38.17 93.2 30.69 93.2 30.69C93.2 30.69 45.27 14.58 45.27 14.58C45.27 14.58 0 0 0 0C5.86 8.19 18.75 19.25 26.63 26.51Z">
	</path>
</svg>